<mxfile host="app.diagrams.net" agent="Mozilla/5.0 (Windows NT 10.0; Win64; x64) AppleWebKit/537.36 (KHTML, like Gecko) Chrome/127.0.0.0 Safari/537.36" version="24.7.5">
  <diagram id="KnoPX05NxZKzZud6wOVa" name="Страница — 1">
    <mxGraphModel dx="1744" dy="2093" grid="1" gridSize="10" guides="1" tooltips="1" connect="1" arrows="1" fold="1" page="1" pageScale="1" pageWidth="827" pageHeight="1169" math="0" shadow="0">
      <root>
        <mxCell id="0" />
        <mxCell id="1" parent="0" />
        <mxCell id="U56aN1LNmnWG0bmLzpsV-1" value="Н&lt;span style=&quot;background-color: initial;&quot;&gt;еавторизованный пользователь&lt;/span&gt;" style="shape=umlActor;verticalLabelPosition=bottom;verticalAlign=top;html=1;outlineConnect=0;" vertex="1" parent="1">
          <mxGeometry x="90" y="230" width="30" height="60" as="geometry" />
        </mxCell>
        <mxCell id="U56aN1LNmnWG0bmLzpsV-2" value="Просмотр списка точек интереса" style="ellipse;whiteSpace=wrap;html=1;" vertex="1" parent="1">
          <mxGeometry x="330" y="110" width="120" height="80" as="geometry" />
        </mxCell>
        <mxCell id="U56aN1LNmnWG0bmLzpsV-3" value="Просмотр списка маршрутов" style="ellipse;whiteSpace=wrap;html=1;" vertex="1" parent="1">
          <mxGeometry x="330" y="210" width="120" height="80" as="geometry" />
        </mxCell>
        <mxCell id="U56aN1LNmnWG0bmLzpsV-4" value="Просмотр карточки точки интереса" style="ellipse;whiteSpace=wrap;html=1;" vertex="1" parent="1">
          <mxGeometry x="330" y="310" width="120" height="80" as="geometry" />
        </mxCell>
        <mxCell id="U56aN1LNmnWG0bmLzpsV-5" value="Просмотр карточки маршрута" style="ellipse;whiteSpace=wrap;html=1;" vertex="1" parent="1">
          <mxGeometry x="330" y="410" width="120" height="80" as="geometry" />
        </mxCell>
        <mxCell id="U56aN1LNmnWG0bmLzpsV-6" value="Регистрация пользователя" style="ellipse;whiteSpace=wrap;html=1;" vertex="1" parent="1">
          <mxGeometry x="330" y="10" width="120" height="80" as="geometry" />
        </mxCell>
        <mxCell id="U56aN1LNmnWG0bmLzpsV-8" value="Запись в базу данных нового пользователя" style="ellipse;whiteSpace=wrap;html=1;" vertex="1" parent="1">
          <mxGeometry x="988.51" y="64" width="120" height="80" as="geometry" />
        </mxCell>
        <mxCell id="U56aN1LNmnWG0bmLzpsV-9" value="Проверка заполненности полей пользовательской информации" style="ellipse;whiteSpace=wrap;html=1;" vertex="1" parent="1">
          <mxGeometry x="492.51" y="-57" width="120" height="80" as="geometry" />
        </mxCell>
        <mxCell id="U56aN1LNmnWG0bmLzpsV-10" value="Попытка получения указанной пользователем почты из базы данных" style="ellipse;whiteSpace=wrap;html=1;" vertex="1" parent="1">
          <mxGeometry x="650.51" y="-57" width="151" height="90" as="geometry" />
        </mxCell>
        <mxCell id="U56aN1LNmnWG0bmLzpsV-11" value="" style="endArrow=openThin;dashed=1;html=1;rounded=0;exitX=1;exitY=0.5;exitDx=0;exitDy=0;entryX=0;entryY=0.5;entryDx=0;entryDy=0;endFill=0;" edge="1" parent="1" source="U56aN1LNmnWG0bmLzpsV-9" target="U56aN1LNmnWG0bmLzpsV-10">
          <mxGeometry width="50" height="50" relative="1" as="geometry">
            <mxPoint x="490.51" y="86" as="sourcePoint" />
            <mxPoint x="560.51" y="79" as="targetPoint" />
          </mxGeometry>
        </mxCell>
        <mxCell id="U56aN1LNmnWG0bmLzpsV-12" value="Include" style="edgeLabel;html=1;align=center;verticalAlign=middle;resizable=0;points=[];" connectable="0" vertex="1" parent="U56aN1LNmnWG0bmLzpsV-11">
          <mxGeometry x="-0.4" y="-3" relative="1" as="geometry">
            <mxPoint x="9" y="-3" as="offset" />
          </mxGeometry>
        </mxCell>
        <mxCell id="U56aN1LNmnWG0bmLzpsV-13" value="Отправка сообщения, что данная почта занята" style="ellipse;whiteSpace=wrap;html=1;" vertex="1" parent="1">
          <mxGeometry x="863.51" y="-100" width="128" height="80" as="geometry" />
        </mxCell>
        <mxCell id="U56aN1LNmnWG0bmLzpsV-14" value="&lt;div style=&quot;&quot;&gt;Если почта&amp;nbsp;&lt;/div&gt;&lt;div style=&quot;&quot;&gt;уже существует в базе данных&lt;/div&gt;" style="shape=note;whiteSpace=wrap;html=1;backgroundOutline=1;darkOpacity=0.05;align=left;" vertex="1" parent="1">
          <mxGeometry x="827" y="-20" width="110" height="72" as="geometry" />
        </mxCell>
        <mxCell id="U56aN1LNmnWG0bmLzpsV-15" value="" style="endArrow=openThin;dashed=1;html=1;rounded=0;exitX=1;exitY=0;exitDx=0;exitDy=0;entryX=0;entryY=0.5;entryDx=0;entryDy=0;endFill=0;" edge="1" parent="1" source="U56aN1LNmnWG0bmLzpsV-10" target="U56aN1LNmnWG0bmLzpsV-13">
          <mxGeometry width="50" height="50" relative="1" as="geometry">
            <mxPoint x="680.51" y="79" as="sourcePoint" />
            <mxPoint x="750.51" y="76" as="targetPoint" />
          </mxGeometry>
        </mxCell>
        <mxCell id="U56aN1LNmnWG0bmLzpsV-16" value="Include" style="edgeLabel;html=1;align=center;verticalAlign=middle;resizable=0;points=[];" connectable="0" vertex="1" parent="U56aN1LNmnWG0bmLzpsV-15">
          <mxGeometry x="-0.4" y="-3" relative="1" as="geometry">
            <mxPoint x="9" y="-3" as="offset" />
          </mxGeometry>
        </mxCell>
        <mxCell id="U56aN1LNmnWG0bmLzpsV-17" value="" style="endArrow=openThin;dashed=1;html=1;rounded=0;exitX=1;exitY=1;exitDx=0;exitDy=0;entryX=0;entryY=0;entryDx=0;entryDy=0;endFill=0;" edge="1" parent="1" source="U56aN1LNmnWG0bmLzpsV-10" target="U56aN1LNmnWG0bmLzpsV-19">
          <mxGeometry width="50" height="50" relative="1" as="geometry">
            <mxPoint x="879.51" y="44" as="sourcePoint" />
            <mxPoint x="902.8010956570181" y="129.0746573942106" as="targetPoint" />
          </mxGeometry>
        </mxCell>
        <mxCell id="U56aN1LNmnWG0bmLzpsV-18" value="Include" style="edgeLabel;html=1;align=center;verticalAlign=middle;resizable=0;points=[];" connectable="0" vertex="1" parent="U56aN1LNmnWG0bmLzpsV-17">
          <mxGeometry x="-0.4" y="-3" relative="1" as="geometry">
            <mxPoint x="9" y="-3" as="offset" />
          </mxGeometry>
        </mxCell>
        <mxCell id="U56aN1LNmnWG0bmLzpsV-19" value="Выдача пользователю роли: &quot;пользователь&quot;" style="ellipse;whiteSpace=wrap;html=1;" vertex="1" parent="1">
          <mxGeometry x="814.51" y="64" width="120" height="80" as="geometry" />
        </mxCell>
        <mxCell id="U56aN1LNmnWG0bmLzpsV-20" value="" style="endArrow=openThin;dashed=1;html=1;rounded=0;exitX=1;exitY=0.5;exitDx=0;exitDy=0;entryX=0;entryY=0.5;entryDx=0;entryDy=0;endFill=0;" edge="1" parent="1" source="U56aN1LNmnWG0bmLzpsV-19" target="U56aN1LNmnWG0bmLzpsV-8">
          <mxGeometry width="50" height="50" relative="1" as="geometry">
            <mxPoint x="879.51" y="82" as="sourcePoint" />
            <mxPoint x="944.51" y="114" as="targetPoint" />
          </mxGeometry>
        </mxCell>
        <mxCell id="U56aN1LNmnWG0bmLzpsV-21" value="Include" style="edgeLabel;html=1;align=center;verticalAlign=middle;resizable=0;points=[];" connectable="0" vertex="1" parent="U56aN1LNmnWG0bmLzpsV-20">
          <mxGeometry x="-0.4" y="-3" relative="1" as="geometry">
            <mxPoint x="9" y="-3" as="offset" />
          </mxGeometry>
        </mxCell>
        <mxCell id="U56aN1LNmnWG0bmLzpsV-22" value="Генерация JWT" style="ellipse;whiteSpace=wrap;html=1;" vertex="1" parent="1">
          <mxGeometry x="1172.51" y="64" width="120" height="80" as="geometry" />
        </mxCell>
        <mxCell id="U56aN1LNmnWG0bmLzpsV-23" value="" style="endArrow=openThin;dashed=1;html=1;rounded=0;exitX=1;exitY=0.5;exitDx=0;exitDy=0;entryX=0;entryY=0.5;entryDx=0;entryDy=0;endFill=0;" edge="1" parent="1" source="U56aN1LNmnWG0bmLzpsV-8" target="U56aN1LNmnWG0bmLzpsV-22">
          <mxGeometry width="50" height="50" relative="1" as="geometry">
            <mxPoint x="1046.51" y="142" as="sourcePoint" />
            <mxPoint x="1095.51" y="142" as="targetPoint" />
          </mxGeometry>
        </mxCell>
        <mxCell id="U56aN1LNmnWG0bmLzpsV-24" value="Include" style="edgeLabel;html=1;align=center;verticalAlign=middle;resizable=0;points=[];" connectable="0" vertex="1" parent="U56aN1LNmnWG0bmLzpsV-23">
          <mxGeometry x="-0.4" y="-3" relative="1" as="geometry">
            <mxPoint x="9" y="-3" as="offset" />
          </mxGeometry>
        </mxCell>
        <mxCell id="U56aN1LNmnWG0bmLzpsV-25" value="Отправка JWT в качестве результата" style="ellipse;whiteSpace=wrap;html=1;" vertex="1" parent="1">
          <mxGeometry x="1356.51" y="64" width="120" height="80" as="geometry" />
        </mxCell>
        <mxCell id="U56aN1LNmnWG0bmLzpsV-26" value="" style="endArrow=openThin;dashed=1;html=1;rounded=0;exitX=1;exitY=0.5;exitDx=0;exitDy=0;entryX=0;entryY=0.5;entryDx=0;entryDy=0;endFill=0;" edge="1" parent="1" source="U56aN1LNmnWG0bmLzpsV-22" target="U56aN1LNmnWG0bmLzpsV-25">
          <mxGeometry width="50" height="50" relative="1" as="geometry">
            <mxPoint x="879.51" y="82" as="sourcePoint" />
            <mxPoint x="944.51" y="114" as="targetPoint" />
          </mxGeometry>
        </mxCell>
        <mxCell id="U56aN1LNmnWG0bmLzpsV-27" value="Include" style="edgeLabel;html=1;align=center;verticalAlign=middle;resizable=0;points=[];" connectable="0" vertex="1" parent="U56aN1LNmnWG0bmLzpsV-26">
          <mxGeometry x="-0.4" y="-3" relative="1" as="geometry">
            <mxPoint x="9" y="-3" as="offset" />
          </mxGeometry>
        </mxCell>
        <mxCell id="U56aN1LNmnWG0bmLzpsV-28" value="Возврат сообщения пользователю, содержащее описание ошибок" style="ellipse;whiteSpace=wrap;html=1;" vertex="1" parent="1">
          <mxGeometry x="606.51" y="33" width="133" height="80" as="geometry" />
        </mxCell>
        <mxCell id="U56aN1LNmnWG0bmLzpsV-29" value="&lt;div style=&quot;&quot;&gt;Если есть&amp;nbsp;&lt;/div&gt;&lt;div style=&quot;&quot;&gt;ошибки на стороне пользователя&lt;/div&gt;" style="shape=note;whiteSpace=wrap;html=1;backgroundOutline=1;darkOpacity=0.05;align=left;" vertex="1" parent="1">
          <mxGeometry x="488.51" y="33" width="114" height="68" as="geometry" />
        </mxCell>
        <mxCell id="U56aN1LNmnWG0bmLzpsV-30" value="" style="endArrow=openThin;dashed=1;html=1;rounded=0;exitX=1;exitY=1;exitDx=0;exitDy=0;entryX=0;entryY=0;entryDx=0;entryDy=0;endFill=0;" edge="1" parent="1" source="U56aN1LNmnWG0bmLzpsV-9" target="U56aN1LNmnWG0bmLzpsV-28">
          <mxGeometry width="50" height="50" relative="1" as="geometry">
            <mxPoint x="826.51" y="25" as="sourcePoint" />
            <mxPoint x="842.51" y="112" as="targetPoint" />
          </mxGeometry>
        </mxCell>
        <mxCell id="U56aN1LNmnWG0bmLzpsV-31" value="Include" style="edgeLabel;html=1;align=center;verticalAlign=middle;resizable=0;points=[];" connectable="0" vertex="1" parent="U56aN1LNmnWG0bmLzpsV-30">
          <mxGeometry x="-0.4" y="-3" relative="1" as="geometry">
            <mxPoint x="9" y="-3" as="offset" />
          </mxGeometry>
        </mxCell>
        <mxCell id="U56aN1LNmnWG0bmLzpsV-32" value="" style="endArrow=none;dashed=1;html=1;rounded=0;exitX=0;exitY=0;exitDx=98.99999999999999;exitDy=15;exitPerimeter=0;" edge="1" parent="1" source="U56aN1LNmnWG0bmLzpsV-29">
          <mxGeometry width="50" height="50" relative="1" as="geometry">
            <mxPoint x="651.51" y="-140" as="sourcePoint" />
            <mxPoint x="604.51" y="22" as="targetPoint" />
          </mxGeometry>
        </mxCell>
        <mxCell id="U56aN1LNmnWG0bmLzpsV-33" value="" style="endArrow=none;dashed=1;html=1;rounded=0;exitX=0;exitY=0;exitDx=0;exitDy=0;exitPerimeter=0;" edge="1" parent="1" source="U56aN1LNmnWG0bmLzpsV-14">
          <mxGeometry width="50" height="50" relative="1" as="geometry">
            <mxPoint x="661.51" y="-130" as="sourcePoint" />
            <mxPoint x="823.51" y="-49" as="targetPoint" />
          </mxGeometry>
        </mxCell>
        <mxCell id="U56aN1LNmnWG0bmLzpsV-34" value="" style="endArrow=openThin;dashed=1;html=1;rounded=0;exitX=1;exitY=0.5;exitDx=0;exitDy=0;entryX=0;entryY=0.5;entryDx=0;entryDy=0;endFill=0;" edge="1" parent="1" source="U56aN1LNmnWG0bmLzpsV-6" target="U56aN1LNmnWG0bmLzpsV-9">
          <mxGeometry width="50" height="50" relative="1" as="geometry">
            <mxPoint x="460" y="76" as="sourcePoint" />
            <mxPoint x="491" y="110" as="targetPoint" />
          </mxGeometry>
        </mxCell>
        <mxCell id="U56aN1LNmnWG0bmLzpsV-35" value="Include" style="edgeLabel;html=1;align=center;verticalAlign=middle;resizable=0;points=[];" connectable="0" vertex="1" parent="U56aN1LNmnWG0bmLzpsV-34">
          <mxGeometry x="-0.4" y="-3" relative="1" as="geometry">
            <mxPoint x="9" y="-3" as="offset" />
          </mxGeometry>
        </mxCell>
        <mxCell id="U56aN1LNmnWG0bmLzpsV-36" value="Запрос в базу данных на получение списка точек интереса" style="ellipse;whiteSpace=wrap;html=1;" vertex="1" parent="1">
          <mxGeometry x="510" y="120" width="120" height="80" as="geometry" />
        </mxCell>
        <mxCell id="U56aN1LNmnWG0bmLzpsV-37" value="Отправка пользователю, полученных результатов из базы данных" style="ellipse;whiteSpace=wrap;html=1;" vertex="1" parent="1">
          <mxGeometry x="672.5" y="120" width="120" height="80" as="geometry" />
        </mxCell>
        <mxCell id="U56aN1LNmnWG0bmLzpsV-38" value="" style="endArrow=openThin;dashed=1;html=1;rounded=0;exitX=1;exitY=0.5;exitDx=0;exitDy=0;endFill=0;entryX=0;entryY=0.5;entryDx=0;entryDy=0;" edge="1" parent="1" source="U56aN1LNmnWG0bmLzpsV-36" target="U56aN1LNmnWG0bmLzpsV-37">
          <mxGeometry width="50" height="50" relative="1" as="geometry">
            <mxPoint x="415" y="176" as="sourcePoint" />
            <mxPoint x="485" y="176" as="targetPoint" />
          </mxGeometry>
        </mxCell>
        <mxCell id="U56aN1LNmnWG0bmLzpsV-39" value="include" style="edgeLabel;html=1;align=center;verticalAlign=middle;resizable=0;points=[];" connectable="0" vertex="1" parent="U56aN1LNmnWG0bmLzpsV-38">
          <mxGeometry x="-0.4476" y="-2" relative="1" as="geometry">
            <mxPoint x="11" y="-2" as="offset" />
          </mxGeometry>
        </mxCell>
        <mxCell id="U56aN1LNmnWG0bmLzpsV-40" value="" style="endArrow=openThin;dashed=1;html=1;rounded=0;exitX=1;exitY=0.5;exitDx=0;exitDy=0;entryX=0;entryY=0.5;entryDx=0;entryDy=0;endFill=0;" edge="1" parent="1" source="U56aN1LNmnWG0bmLzpsV-2" target="U56aN1LNmnWG0bmLzpsV-36">
          <mxGeometry width="50" height="50" relative="1" as="geometry">
            <mxPoint x="460" y="60" as="sourcePoint" />
            <mxPoint x="503" y="-7" as="targetPoint" />
          </mxGeometry>
        </mxCell>
        <mxCell id="U56aN1LNmnWG0bmLzpsV-41" value="Include" style="edgeLabel;html=1;align=center;verticalAlign=middle;resizable=0;points=[];" connectable="0" vertex="1" parent="U56aN1LNmnWG0bmLzpsV-40">
          <mxGeometry x="-0.4" y="-3" relative="1" as="geometry">
            <mxPoint x="9" y="-3" as="offset" />
          </mxGeometry>
        </mxCell>
        <mxCell id="U56aN1LNmnWG0bmLzpsV-42" value="Запрос в базу данных на получение списка маршрутов" style="ellipse;whiteSpace=wrap;html=1;" vertex="1" parent="1">
          <mxGeometry x="510" y="220" width="120" height="80" as="geometry" />
        </mxCell>
        <mxCell id="U56aN1LNmnWG0bmLzpsV-43" value="Отправка пользователю, полученных результатов из базы данных" style="ellipse;whiteSpace=wrap;html=1;" vertex="1" parent="1">
          <mxGeometry x="672.5" y="220" width="120" height="80" as="geometry" />
        </mxCell>
        <mxCell id="U56aN1LNmnWG0bmLzpsV-44" value="" style="endArrow=openThin;dashed=1;html=1;rounded=0;exitX=1;exitY=0.5;exitDx=0;exitDy=0;endFill=0;entryX=0;entryY=0.5;entryDx=0;entryDy=0;" edge="1" source="U56aN1LNmnWG0bmLzpsV-42" target="U56aN1LNmnWG0bmLzpsV-43" parent="1">
          <mxGeometry width="50" height="50" relative="1" as="geometry">
            <mxPoint x="405" y="276" as="sourcePoint" />
            <mxPoint x="475" y="276" as="targetPoint" />
          </mxGeometry>
        </mxCell>
        <mxCell id="U56aN1LNmnWG0bmLzpsV-45" value="include" style="edgeLabel;html=1;align=center;verticalAlign=middle;resizable=0;points=[];" connectable="0" vertex="1" parent="U56aN1LNmnWG0bmLzpsV-44">
          <mxGeometry x="-0.4476" y="-2" relative="1" as="geometry">
            <mxPoint x="11" y="-2" as="offset" />
          </mxGeometry>
        </mxCell>
        <mxCell id="U56aN1LNmnWG0bmLzpsV-46" value="" style="endArrow=openThin;dashed=1;html=1;rounded=0;exitX=1;exitY=0.5;exitDx=0;exitDy=0;entryX=0;entryY=0.5;entryDx=0;entryDy=0;endFill=0;" edge="1" parent="1" source="U56aN1LNmnWG0bmLzpsV-3" target="U56aN1LNmnWG0bmLzpsV-42">
          <mxGeometry width="50" height="50" relative="1" as="geometry">
            <mxPoint x="460" y="160" as="sourcePoint" />
            <mxPoint x="520" y="170" as="targetPoint" />
          </mxGeometry>
        </mxCell>
        <mxCell id="U56aN1LNmnWG0bmLzpsV-47" value="Include" style="edgeLabel;html=1;align=center;verticalAlign=middle;resizable=0;points=[];" connectable="0" vertex="1" parent="U56aN1LNmnWG0bmLzpsV-46">
          <mxGeometry x="-0.4" y="-3" relative="1" as="geometry">
            <mxPoint x="9" y="-3" as="offset" />
          </mxGeometry>
        </mxCell>
        <mxCell id="U56aN1LNmnWG0bmLzpsV-48" value="Запрос в базу данных на получение карточки точки интереса" style="ellipse;whiteSpace=wrap;html=1;" vertex="1" parent="1">
          <mxGeometry x="510" y="320" width="120" height="80" as="geometry" />
        </mxCell>
        <mxCell id="U56aN1LNmnWG0bmLzpsV-49" value="Отправка пользователю, полученных результатов из базы данных" style="ellipse;whiteSpace=wrap;html=1;" vertex="1" parent="1">
          <mxGeometry x="672.5" y="320" width="120" height="80" as="geometry" />
        </mxCell>
        <mxCell id="U56aN1LNmnWG0bmLzpsV-50" value="" style="endArrow=openThin;dashed=1;html=1;rounded=0;exitX=1;exitY=0.5;exitDx=0;exitDy=0;endFill=0;entryX=0;entryY=0.5;entryDx=0;entryDy=0;" edge="1" source="U56aN1LNmnWG0bmLzpsV-48" target="U56aN1LNmnWG0bmLzpsV-49" parent="1">
          <mxGeometry width="50" height="50" relative="1" as="geometry">
            <mxPoint x="405" y="376" as="sourcePoint" />
            <mxPoint x="475" y="376" as="targetPoint" />
          </mxGeometry>
        </mxCell>
        <mxCell id="U56aN1LNmnWG0bmLzpsV-51" value="include" style="edgeLabel;html=1;align=center;verticalAlign=middle;resizable=0;points=[];" connectable="0" vertex="1" parent="U56aN1LNmnWG0bmLzpsV-50">
          <mxGeometry x="-0.4476" y="-2" relative="1" as="geometry">
            <mxPoint x="11" y="-2" as="offset" />
          </mxGeometry>
        </mxCell>
        <mxCell id="U56aN1LNmnWG0bmLzpsV-52" value="" style="endArrow=openThin;dashed=1;html=1;rounded=0;exitX=1;exitY=0.5;exitDx=0;exitDy=0;entryX=0;entryY=0.5;entryDx=0;entryDy=0;endFill=0;" edge="1" parent="1" source="U56aN1LNmnWG0bmLzpsV-4" target="U56aN1LNmnWG0bmLzpsV-48">
          <mxGeometry width="50" height="50" relative="1" as="geometry">
            <mxPoint x="460" y="250" as="sourcePoint" />
            <mxPoint x="520" y="260" as="targetPoint" />
          </mxGeometry>
        </mxCell>
        <mxCell id="U56aN1LNmnWG0bmLzpsV-53" value="Include" style="edgeLabel;html=1;align=center;verticalAlign=middle;resizable=0;points=[];" connectable="0" vertex="1" parent="U56aN1LNmnWG0bmLzpsV-52">
          <mxGeometry x="-0.4" y="-3" relative="1" as="geometry">
            <mxPoint x="9" y="-3" as="offset" />
          </mxGeometry>
        </mxCell>
        <mxCell id="U56aN1LNmnWG0bmLzpsV-54" value="Запрос в базу данных на получение карточки маршрута" style="ellipse;whiteSpace=wrap;html=1;" vertex="1" parent="1">
          <mxGeometry x="510" y="420" width="120" height="80" as="geometry" />
        </mxCell>
        <mxCell id="U56aN1LNmnWG0bmLzpsV-55" value="Отправка пользователю, полученных результатов из базы данных" style="ellipse;whiteSpace=wrap;html=1;" vertex="1" parent="1">
          <mxGeometry x="672.5" y="420" width="120" height="80" as="geometry" />
        </mxCell>
        <mxCell id="U56aN1LNmnWG0bmLzpsV-56" value="" style="endArrow=openThin;dashed=1;html=1;rounded=0;exitX=1;exitY=0.5;exitDx=0;exitDy=0;endFill=0;entryX=0;entryY=0.5;entryDx=0;entryDy=0;" edge="1" source="U56aN1LNmnWG0bmLzpsV-54" target="U56aN1LNmnWG0bmLzpsV-55" parent="1">
          <mxGeometry width="50" height="50" relative="1" as="geometry">
            <mxPoint x="405" y="476" as="sourcePoint" />
            <mxPoint x="475" y="476" as="targetPoint" />
          </mxGeometry>
        </mxCell>
        <mxCell id="U56aN1LNmnWG0bmLzpsV-57" value="include" style="edgeLabel;html=1;align=center;verticalAlign=middle;resizable=0;points=[];" connectable="0" vertex="1" parent="U56aN1LNmnWG0bmLzpsV-56">
          <mxGeometry x="-0.4476" y="-2" relative="1" as="geometry">
            <mxPoint x="11" y="-2" as="offset" />
          </mxGeometry>
        </mxCell>
        <mxCell id="U56aN1LNmnWG0bmLzpsV-58" value="" style="endArrow=openThin;dashed=1;html=1;rounded=0;exitX=1;exitY=0.5;exitDx=0;exitDy=0;entryX=0;entryY=0.5;entryDx=0;entryDy=0;endFill=0;" edge="1" parent="1" source="U56aN1LNmnWG0bmLzpsV-5" target="U56aN1LNmnWG0bmLzpsV-54">
          <mxGeometry width="50" height="50" relative="1" as="geometry">
            <mxPoint x="460" y="360" as="sourcePoint" />
            <mxPoint x="520" y="370" as="targetPoint" />
          </mxGeometry>
        </mxCell>
        <mxCell id="U56aN1LNmnWG0bmLzpsV-59" value="Include" style="edgeLabel;html=1;align=center;verticalAlign=middle;resizable=0;points=[];" connectable="0" vertex="1" parent="U56aN1LNmnWG0bmLzpsV-58">
          <mxGeometry x="-0.4" y="-3" relative="1" as="geometry">
            <mxPoint x="9" y="-3" as="offset" />
          </mxGeometry>
        </mxCell>
        <mxCell id="U56aN1LNmnWG0bmLzpsV-60" value="" style="endArrow=none;html=1;rounded=0;exitX=1;exitY=0.3333333333333333;exitDx=0;exitDy=0;exitPerimeter=0;entryX=0;entryY=0.5;entryDx=0;entryDy=0;" edge="1" parent="1" source="U56aN1LNmnWG0bmLzpsV-1" target="U56aN1LNmnWG0bmLzpsV-6">
          <mxGeometry width="50" height="50" relative="1" as="geometry">
            <mxPoint x="290" y="200" as="sourcePoint" />
            <mxPoint x="340" y="150" as="targetPoint" />
          </mxGeometry>
        </mxCell>
        <mxCell id="U56aN1LNmnWG0bmLzpsV-61" value="" style="endArrow=none;html=1;rounded=0;exitX=1;exitY=0.3333333333333333;exitDx=0;exitDy=0;exitPerimeter=0;entryX=0;entryY=0.5;entryDx=0;entryDy=0;" edge="1" parent="1" source="U56aN1LNmnWG0bmLzpsV-1" target="U56aN1LNmnWG0bmLzpsV-2">
          <mxGeometry width="50" height="50" relative="1" as="geometry">
            <mxPoint x="190" y="120" as="sourcePoint" />
            <mxPoint x="340" y="60" as="targetPoint" />
          </mxGeometry>
        </mxCell>
        <mxCell id="U56aN1LNmnWG0bmLzpsV-62" value="" style="endArrow=none;html=1;rounded=0;entryX=0;entryY=0.5;entryDx=0;entryDy=0;exitX=1;exitY=0.3333333333333333;exitDx=0;exitDy=0;exitPerimeter=0;" edge="1" parent="1" source="U56aN1LNmnWG0bmLzpsV-1" target="U56aN1LNmnWG0bmLzpsV-3">
          <mxGeometry width="50" height="50" relative="1" as="geometry">
            <mxPoint x="190" y="130" as="sourcePoint" />
            <mxPoint x="340" y="160" as="targetPoint" />
          </mxGeometry>
        </mxCell>
        <mxCell id="U56aN1LNmnWG0bmLzpsV-63" value="" style="endArrow=none;html=1;rounded=0;entryX=0;entryY=0.5;entryDx=0;entryDy=0;exitX=1;exitY=0.3333333333333333;exitDx=0;exitDy=0;exitPerimeter=0;" edge="1" parent="1" source="U56aN1LNmnWG0bmLzpsV-1" target="U56aN1LNmnWG0bmLzpsV-4">
          <mxGeometry width="50" height="50" relative="1" as="geometry">
            <mxPoint x="190" y="120" as="sourcePoint" />
            <mxPoint x="340" y="260" as="targetPoint" />
          </mxGeometry>
        </mxCell>
        <mxCell id="U56aN1LNmnWG0bmLzpsV-64" value="" style="endArrow=none;html=1;rounded=0;entryX=0;entryY=0.5;entryDx=0;entryDy=0;exitX=1;exitY=0.3333333333333333;exitDx=0;exitDy=0;exitPerimeter=0;" edge="1" parent="1" source="U56aN1LNmnWG0bmLzpsV-1" target="U56aN1LNmnWG0bmLzpsV-5">
          <mxGeometry width="50" height="50" relative="1" as="geometry">
            <mxPoint x="190" y="120" as="sourcePoint" />
            <mxPoint x="340" y="360" as="targetPoint" />
          </mxGeometry>
        </mxCell>
        <mxCell id="U56aN1LNmnWG0bmLzpsV-65" value="Запрос на авторизацию" style="ellipse;whiteSpace=wrap;html=1;" vertex="1" parent="1">
          <mxGeometry x="330" y="-176" width="120" height="80" as="geometry" />
        </mxCell>
        <mxCell id="U56aN1LNmnWG0bmLzpsV-66" value="Проверяется существует ли пользователь с указанной почтой" style="ellipse;whiteSpace=wrap;html=1;" vertex="1" parent="1">
          <mxGeometry x="481" y="-213" width="120" height="80" as="geometry" />
        </mxCell>
        <mxCell id="U56aN1LNmnWG0bmLzpsV-68" value="" style="endArrow=openThin;dashed=1;html=1;rounded=0;exitX=1;exitY=0.5;exitDx=0;exitDy=0;entryX=0;entryY=0.5;entryDx=0;entryDy=0;endFill=0;" edge="1" parent="1" source="U56aN1LNmnWG0bmLzpsV-65" target="U56aN1LNmnWG0bmLzpsV-66">
          <mxGeometry width="50" height="50" relative="1" as="geometry">
            <mxPoint x="374" y="-64" as="sourcePoint" />
            <mxPoint x="424" y="-114" as="targetPoint" />
          </mxGeometry>
        </mxCell>
        <mxCell id="U56aN1LNmnWG0bmLzpsV-69" value="include" style="edgeLabel;html=1;align=center;verticalAlign=middle;resizable=0;points=[];" connectable="0" vertex="1" parent="U56aN1LNmnWG0bmLzpsV-68">
          <mxGeometry x="-0.4476" y="-2" relative="1" as="geometry">
            <mxPoint x="11" y="-2" as="offset" />
          </mxGeometry>
        </mxCell>
        <mxCell id="U56aN1LNmnWG0bmLzpsV-70" value="Отправка JWT в качестве результата" style="ellipse;whiteSpace=wrap;html=1;" vertex="1" parent="1">
          <mxGeometry x="1019" y="-213" width="120" height="80" as="geometry" />
        </mxCell>
        <mxCell id="U56aN1LNmnWG0bmLzpsV-71" value="" style="endArrow=openThin;dashed=1;html=1;rounded=0;exitX=1;exitY=0.5;exitDx=0;exitDy=0;endFill=0;entryX=0;entryY=0.5;entryDx=0;entryDy=0;" edge="1" parent="1" source="U56aN1LNmnWG0bmLzpsV-66" target="U56aN1LNmnWG0bmLzpsV-73">
          <mxGeometry width="50" height="50" relative="1" as="geometry">
            <mxPoint x="464" y="-204" as="sourcePoint" />
            <mxPoint x="706" y="-214" as="targetPoint" />
          </mxGeometry>
        </mxCell>
        <mxCell id="U56aN1LNmnWG0bmLzpsV-72" value="include" style="edgeLabel;html=1;align=center;verticalAlign=middle;resizable=0;points=[];" connectable="0" vertex="1" parent="U56aN1LNmnWG0bmLzpsV-71">
          <mxGeometry x="-0.4476" y="-2" relative="1" as="geometry">
            <mxPoint x="11" y="-2" as="offset" />
          </mxGeometry>
        </mxCell>
        <mxCell id="U56aN1LNmnWG0bmLzpsV-73" value="Проверяется верно ли указан пароль пользователя" style="ellipse;whiteSpace=wrap;html=1;" vertex="1" parent="1">
          <mxGeometry x="655" y="-213" width="120" height="80" as="geometry" />
        </mxCell>
        <mxCell id="U56aN1LNmnWG0bmLzpsV-74" value="Генерация JWT" style="ellipse;whiteSpace=wrap;html=1;" vertex="1" parent="1">
          <mxGeometry x="844" y="-213" width="120" height="80" as="geometry" />
        </mxCell>
        <mxCell id="U56aN1LNmnWG0bmLzpsV-75" value="" style="endArrow=openThin;dashed=1;html=1;rounded=0;exitX=1;exitY=0.5;exitDx=0;exitDy=0;endFill=0;entryX=0;entryY=0.5;entryDx=0;entryDy=0;" edge="1" parent="1" source="U56aN1LNmnWG0bmLzpsV-73" target="U56aN1LNmnWG0bmLzpsV-74">
          <mxGeometry width="50" height="50" relative="1" as="geometry">
            <mxPoint x="693" y="-382" as="sourcePoint" />
            <mxPoint x="755" y="-382" as="targetPoint" />
          </mxGeometry>
        </mxCell>
        <mxCell id="U56aN1LNmnWG0bmLzpsV-76" value="include" style="edgeLabel;html=1;align=center;verticalAlign=middle;resizable=0;points=[];" connectable="0" vertex="1" parent="U56aN1LNmnWG0bmLzpsV-75">
          <mxGeometry x="-0.4476" y="-2" relative="1" as="geometry">
            <mxPoint x="11" y="-2" as="offset" />
          </mxGeometry>
        </mxCell>
        <mxCell id="U56aN1LNmnWG0bmLzpsV-77" value="&lt;div style=&quot;text-align: justify;&quot;&gt;&lt;span style=&quot;background-color: initial;&quot;&gt;Если почта&amp;nbsp;&lt;/span&gt;&lt;/div&gt;&lt;div style=&quot;text-align: justify;&quot;&gt;&lt;span style=&quot;background-color: initial;&quot;&gt;указана верно&lt;/span&gt;&lt;/div&gt;" style="shape=note;whiteSpace=wrap;html=1;backgroundOutline=1;darkOpacity=0.05;align=left;" vertex="1" parent="1">
          <mxGeometry x="595" y="-144" width="98" height="63" as="geometry" />
        </mxCell>
        <mxCell id="U56aN1LNmnWG0bmLzpsV-78" value="&lt;div style=&quot;&quot;&gt;Если пароль указан верно&lt;/div&gt;" style="shape=note;whiteSpace=wrap;html=1;backgroundOutline=1;darkOpacity=0.05;align=left;" vertex="1" parent="1">
          <mxGeometry x="758.51" y="-144" width="105" height="63" as="geometry" />
        </mxCell>
        <mxCell id="U56aN1LNmnWG0bmLzpsV-79" value="Отправка сообщения с информацией об ошибке&amp;nbsp;" style="ellipse;whiteSpace=wrap;html=1;" vertex="1" parent="1">
          <mxGeometry x="568" y="-290" width="120" height="80" as="geometry" />
        </mxCell>
        <mxCell id="U56aN1LNmnWG0bmLzpsV-80" value="" style="endArrow=openThin;dashed=1;html=1;rounded=0;exitX=0.5;exitY=0;exitDx=0;exitDy=0;endFill=0;entryX=0;entryY=0.5;entryDx=0;entryDy=0;" edge="1" parent="1" source="U56aN1LNmnWG0bmLzpsV-66" target="U56aN1LNmnWG0bmLzpsV-79">
          <mxGeometry width="50" height="50" relative="1" as="geometry">
            <mxPoint x="654" y="-204" as="sourcePoint" />
            <mxPoint x="743" y="-321" as="targetPoint" />
          </mxGeometry>
        </mxCell>
        <mxCell id="U56aN1LNmnWG0bmLzpsV-81" value="include" style="edgeLabel;html=1;align=center;verticalAlign=middle;resizable=0;points=[];" connectable="0" vertex="1" parent="U56aN1LNmnWG0bmLzpsV-80">
          <mxGeometry x="-0.4476" y="-2" relative="1" as="geometry">
            <mxPoint x="11" y="-2" as="offset" />
          </mxGeometry>
        </mxCell>
        <mxCell id="U56aN1LNmnWG0bmLzpsV-82" value="" style="endArrow=openThin;dashed=1;html=1;rounded=0;exitX=0.5;exitY=0;exitDx=0;exitDy=0;endFill=0;entryX=1;entryY=0.5;entryDx=0;entryDy=0;" edge="1" parent="1" source="U56aN1LNmnWG0bmLzpsV-73" target="U56aN1LNmnWG0bmLzpsV-79">
          <mxGeometry width="50" height="50" relative="1" as="geometry">
            <mxPoint x="594" y="-244" as="sourcePoint" />
            <mxPoint x="737" y="-491" as="targetPoint" />
          </mxGeometry>
        </mxCell>
        <mxCell id="U56aN1LNmnWG0bmLzpsV-83" value="include" style="edgeLabel;html=1;align=center;verticalAlign=middle;resizable=0;points=[];" connectable="0" vertex="1" parent="U56aN1LNmnWG0bmLzpsV-82">
          <mxGeometry x="-0.4476" y="-2" relative="1" as="geometry">
            <mxPoint x="11" y="-2" as="offset" />
          </mxGeometry>
        </mxCell>
        <mxCell id="U56aN1LNmnWG0bmLzpsV-84" value="" style="endArrow=openThin;dashed=1;html=1;rounded=0;exitX=1;exitY=0.5;exitDx=0;exitDy=0;endFill=0;entryX=0;entryY=0.5;entryDx=0;entryDy=0;" edge="1" parent="1" source="U56aN1LNmnWG0bmLzpsV-74" target="U56aN1LNmnWG0bmLzpsV-70">
          <mxGeometry width="50" height="50" relative="1" as="geometry">
            <mxPoint x="838" y="-321" as="sourcePoint" />
            <mxPoint x="954" y="-321" as="targetPoint" />
          </mxGeometry>
        </mxCell>
        <mxCell id="U56aN1LNmnWG0bmLzpsV-85" value="include" style="edgeLabel;html=1;align=center;verticalAlign=middle;resizable=0;points=[];" connectable="0" vertex="1" parent="U56aN1LNmnWG0bmLzpsV-84">
          <mxGeometry x="-0.4476" y="-2" relative="1" as="geometry">
            <mxPoint x="11" y="-2" as="offset" />
          </mxGeometry>
        </mxCell>
        <mxCell id="U56aN1LNmnWG0bmLzpsV-88" value="" style="endArrow=none;dashed=1;html=1;rounded=0;exitX=0;exitY=0;exitDx=34;exitDy=0;exitPerimeter=0;" edge="1" parent="1" source="U56aN1LNmnWG0bmLzpsV-77">
          <mxGeometry width="50" height="50" relative="1" as="geometry">
            <mxPoint x="712" y="-152" as="sourcePoint" />
            <mxPoint x="631" y="-170" as="targetPoint" />
          </mxGeometry>
        </mxCell>
        <mxCell id="U56aN1LNmnWG0bmLzpsV-89" value="" style="endArrow=none;dashed=1;html=1;rounded=0;exitX=0;exitY=0;exitDx=37.5;exitDy=0;exitPerimeter=0;" edge="1" parent="1" source="U56aN1LNmnWG0bmLzpsV-78">
          <mxGeometry width="50" height="50" relative="1" as="geometry">
            <mxPoint x="657" y="-174" as="sourcePoint" />
            <mxPoint x="812" y="-175" as="targetPoint" />
          </mxGeometry>
        </mxCell>
        <mxCell id="U56aN1LNmnWG0bmLzpsV-90" value="" style="endArrow=none;html=1;rounded=0;entryX=0;entryY=0.5;entryDx=0;entryDy=0;exitX=1;exitY=0.3333333333333333;exitDx=0;exitDy=0;exitPerimeter=0;" edge="1" parent="1" source="U56aN1LNmnWG0bmLzpsV-1" target="U56aN1LNmnWG0bmLzpsV-65">
          <mxGeometry width="50" height="50" relative="1" as="geometry">
            <mxPoint x="140" y="120" as="sourcePoint" />
            <mxPoint x="340" y="60" as="targetPoint" />
          </mxGeometry>
        </mxCell>
      </root>
    </mxGraphModel>
  </diagram>
</mxfile>
